…
Let’s start with a for loop!

``` r
output = vector("list", length = 100)

for (i in 1:100) {
  
  output[[i]] = sim_mean_sd(n_obs = 30)
}

bind_rows(output)
```

    ## # A tibble: 100 × 2
    ##    mu_hat sigma_hat
    ##     <dbl>     <dbl>
    ##  1   5.92      3.41
    ##  2   7.62      3.01
    ##  3   5.31      4.09
    ##  4   5.85      3.14
    ##  5   5.84      3.23
    ##  6   7.48      4.92
    ##  7   6.69      4.22
    ##  8   6.08      4.30
    ##  9   8.15      4.66
    ## 10   7.77      4.17
    ## # … with 90 more rows
…
